@startuml

interface Collectionable{
	{abstract} +construct(array $data)
	{abstract} +filter(array $field) : Collectionable
	{abstract} +filters(array $fields) : Collectionable
	{abstract} +value($key) : array
	{abstract} +values(array $keys) : array
	{abstract} +getData() : array
	{abstract} +add($element) : bool
	{abstract} +remove($key) : object|array
	{abstract} +findByKey($key) : object|array
	{abstract} +findByContent(array $fields) : object|array
	{abstract} +groupBy($name) : int
	{abstract} +toSimpleKey()
	{abstract} +max() : mixed
	{abstract} +min() : mixed
	{abstract} +&iterate()
}

Collectionable <|-- ArrCollection
Collectionable <|-- PublicCollection
Collectionable <|-- PrivateCollection

class Collection {
	+PUB : int
	+PRI : int
	+ARR : int
	{static} +build(int $key, array $data) : Collectionable
}

@enduml
